…
    ## # A tibble: 1 x 2
    ##   `n_distinct(aisle_id)`       n
    ##                    <int>   <int>
    ## 1                    134 1384617

``` r
instacart %>% 
    group_by(aisle, order_id) %>%  
    summarise(order_count = n()) %>% 
    group_by(aisle) %>% 
    summarise(total_order_count = sum(order_count)) %>% 
  arrange(desc(total_order_count))
```

    ## # A tibble: 134 x 2
    ##    aisle                         total_order_count
    ##    <chr>                                     <int>
    ##  1 fresh vegetables                         150609
    ##  2 fresh fruits                             150473
    ##  3 packaged vegetables fruits                78493
    ##  4 yogurt                                    55240
    ##  5 packaged cheese                           41699
    ##  6 water seltzer sparkling water             36617
    ##  7 milk                                      32644
    ##  8 chips pretzels                            31269
    ##  9 soy lactosefree                           26240
    ## 10 bread                                     23635
    ## # ... with 124 more rows
…
